…
| term              | estimate | p.value |
|:------------------|---------:|--------:|
| (Intercept)       |   19.839 |   0.104 |
| stars             |   31.990 |   0.000 |
| Borough: Brooklyn |  -49.754 |   0.000 |
| Borough: Queens   |  -77.048 |   0.000 |
| Borough: Bronx    |  -90.254 |   0.000 |

## Diagnostics

``` r
modelr::add_residuals(nyc_airbnb, fit)
```

    ## # A tibble: 40,492 × 6
    ##    price stars borough neighborhood room_type        resid
    ##    <dbl> <dbl> <fct>   <chr>        <fct>            <dbl>
    ##  1    99   5   Bronx   City Island  Private room      9.47
    ##  2   200  NA   Bronx   City Island  Private room     NA   
    ##  3   300  NA   Bronx   City Island  Entire home/apt  NA   
    ##  4   125   5   Bronx   City Island  Entire home/apt  35.5 
    ##  5    69   5   Bronx   City Island  Private room    -20.5 
    ##  6   125   5   Bronx   City Island  Entire home/apt  35.5 
    ##  7    85   5   Bronx   City Island  Entire home/apt  -4.53
    ##  8    39   4.5 Bronx   Allerton     Private room    -34.5 
    ##  9    95   5   Bronx   Allerton     Entire home/apt   5.47
    ## 10   125   4.5 Bronx   Allerton     Entire home/apt  51.5 
    ## # ℹ 40,482 more rows

``` r
modelr::add_predictions(nyc_airbnb, fit)
```

    ## # A tibble: 40,492 × 6
    ##    price stars borough neighborhood room_type        pred
    ##    <dbl> <dbl> <fct>   <chr>        <fct>           <dbl>
    ##  1    99   5   Bronx   City Island  Private room     89.5
    ##  2   200  NA   Bronx   City Island  Private room     NA  
    ##  3   300  NA   Bronx   City Island  Entire home/apt  NA  
    ##  4   125   5   Bronx   City Island  Entire home/apt  89.5
    ##  5    69   5   Bronx   City Island  Private room     89.5
    ##  6   125   5   Bronx   City Island  Entire home/apt  89.5
    ##  7    85   5   Bronx   City Island  Entire home/apt  89.5
    ##  8    39   4.5 Bronx   Allerton     Private room     73.5
    ##  9    95   5   Bronx   Allerton     Entire home/apt  89.5
    ## 10   125   4.5 Bronx   Allerton     Entire home/apt  73.5
    ## # ℹ 40,482 more rows
…
